<?xml version="1.0" encoding="UTF-8"?>
<!DOCTYPE svg PUBLIC "-//W3C//DTD SVG 1.1//EN" "http://www.w3.org/Graphics/SVG/1.1/DTD/svg11.dtd">
<!-- Creator: CorelDRAW 2019 (64-Bit) -->
<svg xmlns="http://www.w3.org/2000/svg" xml:space="preserve" width="1.66666in" height="0.408898in" version="1.1" style="shape-rendering:geometricPrecision; text-rendering:geometricPrecision; image-rendering:optimizeQuality; fill-rule:evenodd; clip-rule:evenodd"
viewBox="0 0 1666.66 408.9"
 xmlns:xlink="http://www.w3.org/1999/xlink">
 <defs>
  <style type="text/css">
   <![CDATA[
    .fil1 {fill:#FEFEFE}
    .fil0 {fill:#FEFEFE;fill-rule:nonzero}
   ]]>
  </style>
 </defs>
 <g id="Layer_x0020_1">
  <metadata id="CorelCorpID_0Corel-Layer"/>
  <g id="_2394529565824">
   <g>
    <polygon class="fil0" points="330.61,358.48 162.33,358.48 162.33,48.42 217.2,48.42 217.2,301.8 330.61,301.8 "/>
    <polygon class="fil0" points="146.01,358.48 -0,358.48 -0,48.42 140.39,48.42 140.39,105.25 54.87,105.25 54.87,174.26 116.35,174.26 116.35,230.87 54.87,230.87 54.87,301.8 146.01,301.8 "/>
    <path class="fil1" d="M265.92 0.44l57.79 44.09c0.94,0.72 1.12,2.07 0.4,3.02 -0.26,0.34 -0.6,0.58 -0.98,0.72l-11.82 4.28 62.27 159 63.62 -161.95c0.33,-0.85 1.15,-1.37 2.01,-1.37l55.25 -0c1.19,0 2.16,0.97 2.16,2.16 0,0.33 -0.07,0.64 -0.2,0.92l-120.82 307.98c-0.43,1.11 -1.69,1.66 -2.79,1.22 -0.58,-0.23 -1.01,-0.68 -1.22,-1.22l-112.71 -287.74 -9.7 3.51c-1.11,0.41 -2.35,-0.17 -2.76,-1.29 -0.15,-0.4 -0.17,-0.81 -0.07,-1.2l16.18 -70.87c0.26,-1.16 1.41,-1.89 2.57,-1.63 0.31,0.07 0.59,0.2 0.83,0.39z"/>
    <path class="fil1" d="M615.22 408.44l-57.79 -44.09c-0.94,-0.72 -1.12,-2.07 -0.4,-3.02 0.26,-0.34 0.6,-0.58 0.98,-0.72l11.82 -4.28 -62.27 -159 -63.63 161.96c-0.33,0.85 -1.14,1.37 -2,1.37l-55.25 0.01c-1.19,0 -2.16,-0.97 -2.16,-2.16 0,-0.33 0.07,-0.64 0.2,-0.92l120.82 -307.98c0.43,-1.11 1.69,-1.65 2.79,-1.22 0.58,0.22 1.01,0.68 1.22,1.22l112.71 287.75 9.7 -3.51c1.11,-0.41 2.35,0.17 2.76,1.29 0.15,0.4 0.17,0.82 0.07,1.21l-16.18 70.86c-0.26,1.16 -1.41,1.89 -2.57,1.63 -0.31,-0.07 -0.59,-0.2 -0.83,-0.39z"/>
   </g>
   <path class="fil0" d="M641.77 237.41l0 13.59 53.68 0 0 107.37 13.59 0 0 -107.37 53.52 0 0 -13.59 -120.79 0zm132.7 120.96l13.76 0 0 -97.31 -13.76 0 0 97.31zm0 -129.18l0 13.76 13.76 0 0 -13.76 -13.76 0zm163.74 31.87l-128.51 0 0 97.31 13.93 0 0 -77.01c0,-3.52 3.02,-6.54 6.54,-6.54l40.6 0c3.52,0 6.54,3.02 6.54,6.54l0 77.01 13.93 0 0 -77.01c0,-3.52 2.85,-6.54 6.54,-6.54l40.43 0c3.69,0 6.71,3.02 6.71,6.54l0 77.01 13.59 0 0 -77.01c0,-11.24 -8.89,-20.3 -20.3,-20.3zm113.75 0l-58.38 0c-11.24,0 -20.3,9.06 -20.3,20.3l0 56.71c0,11.24 9.06,20.3 20.3,20.3l78.85 0 0 -13.76 -78.85 0c-3.52,0 -6.54,-3.02 -6.54,-6.54l0 -21.47 85.39 0 0 -35.24c0,-11.24 -9.06,-20.3 -20.47,-20.3zm-64.93 41.77l0 -21.47c0,-3.52 3.02,-6.54 6.54,-6.54l58.38 0c3.69,0 6.54,3.02 6.54,6.54l0 21.47 -71.46 0zm103.18 -65.09l0 120.63 13.59 0 0 -45.63c2.51,0.34 5.03,0.67 6.54,0.67l80.53 0c11.24,0 20.13,-9.06 20.13,-20.13l0 -35.4c0,-11.07 -8.89,-20.13 -20.13,-20.13l-100.66 0zm107.2 55.53c0,3.52 -3.02,6.37 -6.54,6.37l-80.53 0c-3.52,0 -6.54,-2.85 -6.54,-6.37l0 -35.4c0,-3.52 3.02,-6.54 6.54,-6.54l80.53 0c3.52,0 6.54,3.02 6.54,6.54l0 35.4zm110.39 -32.21l0 77.01c0,3.52 -3.02,6.54 -6.71,6.54l-58.39 0c-3.52,0 -6.54,-3.02 -6.54,-6.54l0 -77.01 -13.76 0 0 77.01c0,11.24 9.06,20.3 20.3,20.3l58.39 0c11.41,0 20.46,-9.06 20.46,-20.3l0 -77.01 -13.76 0zm111.06 0l-78.85 0 0 97.31 13.76 0 0 -77.01c0,-3.52 3.02,-6.54 6.71,-6.54l58.38 0c3.52,0 6.54,3.02 6.54,6.54l0 77.01 13.76 0 0 -77.01c0,-11.24 -9.06,-20.3 -20.3,-20.3zm54.36 83.55c-3.52,0 -6.54,-3.02 -6.54,-6.54l0 -56.71c0,-3.52 3.02,-6.54 6.54,-6.54l78.51 0 0 -13.76 -78.51 0c-11.24,0 -20.3,9.06 -20.3,20.3l0 56.71c0,11.24 9.06,20.3 20.3,20.3l78.85 0 0 -13.76 -78.85 0zm173.13 -83.55l-65.1 0 0 -31.87 -13.76 0 0 129.18 13.76 0 0 -77.01c0,-3.52 3.02,-6.54 6.72,-6.54l58.38 0c3.52,0 6.54,3.02 6.54,6.54l0 77.01 13.76 0 0 -77.01c0,-11.24 -9.23,-20.3 -20.3,-20.3z"/>
  </g>
 </g>
</svg>
