<?xml version="1.0" encoding="UTF-8"?>
<!DOCTYPE svg PUBLIC "-//W3C//DTD SVG 1.1//EN" "http://www.w3.org/Graphics/SVG/1.1/DTD/svg11.dtd">
<!-- Creator: CorelDRAW 2019 (64-Bit) -->
<svg xmlns="http://www.w3.org/2000/svg" xml:space="preserve" width="0.367874in" height="0.31563in" version="1.1" style="shape-rendering:geometricPrecision; text-rendering:geometricPrecision; image-rendering:optimizeQuality; fill-rule:evenodd; clip-rule:evenodd"
viewBox="0 0 367.87 315.63"
 xmlns:xlink="http://www.w3.org/1999/xlink">
 <defs>
  <style type="text/css">
   <![CDATA[
    .fil0 {fill:#FEFEFE;fill-opacity:0.811765}
   ]]>
  </style>
 </defs>
 <g id="Layer_x0020_1">
  <metadata id="CorelCorpID_0Corel-Layer"/>
  <path class="fil0" d="M-2.74 2.18l367.89 0 0 315.63 -367.89 0 0 -315.63zm202.61 131.7c0,-3.5 -0.58,-6.53 -1.73,-9.13 -1.15,-2.57 -2.74,-4.74 -4.74,-6.45 -2.02,-1.74 -4.36,-3.01 -7.07,-3.85 -2.72,-0.87 -5.63,-1.27 -8.81,-1.27 -2.69,0 -5.34,0.32 -7.94,1.03 -2.6,0.68 -5.11,1.63 -7.56,2.85 -2.45,1.22 -4.82,2.68 -7.11,4.36 -2.31,1.71 -4.42,3.58 -6.41,5.64l0 -13.96c3.9,-3.55 8.26,-6.26 13.08,-8.16 4.83,-1.87 10.72,-2.81 17.65,-2.81 4.96,0 9.56,0.68 13.77,2.03 4.24,1.35 7.91,3.33 11,5.91 3.12,2.6 5.54,5.8 7.33,9.62 1.76,3.82 2.66,8.18 2.66,13.09 0,4.5 -0.55,8.59 -1.65,12.25 -1.09,3.63 -2.77,7.07 -4.99,10.3 -2.22,3.25 -5.02,6.34 -8.43,9.29 -3.37,2.98 -7.33,5.99 -11.93,9.05 -5.69,3.82 -10.37,7.07 -14.06,9.78 -3.69,2.68 -6.64,5.2 -8.8,7.56 -2.17,2.36 -3.7,4.72 -4.56,7.07 -0.9,2.35 -1.33,5.07 -1.33,8.13l60.4 0 0 11.68 -74.87 0 0 -5.64c0,-4.88 0.57,-9.16 1.7,-12.87 1.12,-3.69 2.97,-7.21 5.57,-10.54 2.6,-3.33 6,-6.67 10.19,-10 4.22,-3.33 9.35,-7.1 15.44,-11.27 4.39,-2.98 8.08,-5.8 11.03,-8.51 2.98,-2.71 5.35,-5.39 7.16,-8.1 1.79,-2.68 3.09,-5.42 3.84,-8.21 0.78,-2.79 1.15,-5.72 1.15,-8.86z"/>
 </g>
</svg>
